{"dir":"FDSoil",
"modulo":"admin_usuario_change_pswd_forced",
"arr":[
    {"dir":"appOrg", "typ":"css" , "arc":"tpl"},
    {"dir":"appOrg", "typ":"css" , "arc":"form"},
    {"dir":"appOrg", "typ":"css" , "arc":"alerts"},
    {"dir":"appOrg", "typ":"css" , "arc":"keypad"},
    {"dir":"appOrg", "typ":"css" , "arc":"validateData"},
    {"dir":"packs", "typ":"css"  , "arc":"jquery/jquery-ui-custom"},
    {"dir":"packs", "typ":"js"   , "arc":"jquery/jquery-ui-custom"},
    {"dir":"appOrg", "typ":"js"  , "arc":"app"},
    {"dir":"appOrg", "typ":"js"  , "arc":"validar"},
    {"dir":"FDSoil", "typ":"js"  , "arc":"numero"},
    {"dir":"FDSoil", "typ":"js"  , "arc":"effect"},
    {"dir":"FDSoil", "typ":"js"  , "arc":"relocate"},
    {"dir":"FDSoil", "typ":"js"  , "arc":"tabla"},
    {"dir":"FDSoil", "typ":"js"  , "arc":"validar"},
    {"dir":"FDSoil", "typ":"js"  , "arc":"ajax"},
    {"dir":"FDSoil", "typ":"js"  , "arc":"combo"},
    {"dir":"FDSoil", "typ":"js"  , "arc":"alerts"},
    {"dir":"FDSoil", "typ":"js"  , "arc":"pickList"},
    {"dir":"FDSoil", "typ":"js"  , "arc":"constraintsData"},
    {"dir":"FDSoil", "typ":"js"  , "arc":"formatData"},
    {"dir":"FDSoil", "typ":"js"  , "arc":"validateData"},
    {"dir":"modulo", "typ":"js"  , "arc":"keypad"},
    {"dir":"modulo", "typ":"js"  , "arc":"validar"},
    {"dir":"modulo", "typ":"js"  , "arc":"reqs"}
]}
