{"dir":"myApp0", 
"modulo":"admin_session_closed",
"arr":[
    {"dir":"modulo", "typ":"css" , "arc":"clock"},
    {"dir":"appOrg", "typ":"css" , "arc":"tpl"},
    {"dir":"appOrg", "typ":"css" , "arc":"form"},
    {"dir":"appOrg", "typ":"js"  , "arc":"app"},
    {"dir":"FDSoil", "typ":"js"  , "arc":"validar"},
    {"dir":"modulo", "typ":"js"  , "arc":"validar"},
    {"dir":"modulo", "typ":"js"  , "arc":"clock"}
]}
