{"dir":"FDSoil",
"modulo":"admin_recover_password",
"arr":[
    {"dir":"appOrg", "typ":"css" , "arc":"tpl"},
    {"dir":"appOrg", "typ":"css" , "arc":"form"},
    {"dir":"appOrg", "typ":"css" , "arc":"alerts"},
    {"dir":"FDSoil", "typ":"js"  , "arc":"ajax"},
    {"dir":"FDSoil", "typ":"js"  , "arc":"validar"},
    {"dir":"FDSoil", "typ":"js"  , "arc":"numero"},
    {"dir":"FDSoil", "typ":"js"  , "arc":"alert_s"},
    {"dir":"modulo", "typ":"js"  , "arc":"validar"},
    {"dir":"modulo", "typ":"js"  , "arc":"reqs"},
    {"dir":"appOrg", "typ":"js"  , "arc":"app"},
    {"dir":"appOrg", "typ":"js"  , "arc":"validar"}
]}
