{"dir":"myApp0",
"modulo":"admin_menu_2n",
"arr":[
    {"dir":"appOrg", "typ":"css" , "arc":"tpl"},
    {"dir":"appOrg", "typ":"css" , "arc":"form"},
    {"dir":"appOrg", "typ":"css" , "arc":"menu"},
    {"dir":"appOrg", "typ":"css" , "arc":"jqry_table"},
    {"dir":"appOrg", "typ":"css"  , "arc":"alerts"},
    {"dir":"appOrg", "typ":"js"  , "arc":"app"},
    {"dir":"appOrg", "typ":"js"  , "arc":"validar"},
    {"dir":"modulo", "typ":"js"  , "arc":"submit"},
    {"dir":"modulo", "typ":"js"  , "arc":"reqs"},
    {"dir":"modulo", "typ":"js"  , "arc":"tabla"},
    {"dir":"FDSoil", "typ":"js"  , "arc":"numero"},
    {"dir":"FDSoil", "typ":"js"  , "arc":"menu"},
    {"dir":"FDSoil", "typ":"js"  , "arc":"alerts"},
    {"dir":"FDSoil", "typ":"js"  , "arc":"effect"},
    {"dir":"FDSoil", "typ":"js"  , "arc":"relocate"},
    {"dir":"FDSoil", "typ":"js"  , "arc":"tabla"},
    {"dir":"FDSoil", "typ":"js"  , "arc":"validar"},
    {"dir":"FDSoil", "typ":"js"  , "arc":"ajax"},
    {"dir":"FDSoil", "typ":"js"  , "arc":"combo"},
    {"dir":"packs", "typ":"js"  , "arc":"jquery/jquery.dataTables"}
]}
